…
Nested tidysynth object (first 5 rows, list-columns visible):
# A tibble: 78 × 11
  .id       .placebo .type .outcome .predictors .synthetic_control .unit_weights
  <fct>        <dbl> <chr> <list>   <list>      <list>             <list>       
1 Californ…        0 trea… <tibble> <tibble>    <tibble [31 × 3]>  <tibble>     
2 Californ…        0 cont… <tibble> <tibble>    <tibble [31 × 3]>  <tibble>     
3 Alabama          1 trea… <tibble> <tibble>    <tibble [31 × 3]>  <tibble>     
4 Alabama          1 cont… <tibble> <tibble>    <tibble [31 × 3]>  <tibble>     
5 Arkansas         1 trea… <tibble> <tibble>    <tibble [31 × 3]>  <tibble>     
# ℹ 73 more rows
# ℹ 4 more variables: .predictor_weights <list>, .original_data <list>,
#   .meta <list>, .loss <list>
…
