…
No pre-treatment periods to test
No pre-treatment periods to test
No pre-treatment periods to test
2x2 covariate-adjusted estimates:
# A tibble: 6 × 7
  method weighting              est    se method_label                lo95  hi95
  <chr>  <chr>                <dbl> <dbl> <chr>                      <dbl> <dbl>
1 reg    Unweighted          -1.62   4.66 Outcome regression (OR)   -10.7   7.51
2 reg    Population-weighted -3.46   2.29 Outcome regression (OR)    -7.95  1.03
3 ipw    Unweighted          -0.859  4.84 Inverse propensity weigh… -10.3   8.62
4 ipw    Population-weighted -3.84   3.19 Inverse propensity weigh… -10.1   2.42
5 dr     Unweighted          -1.23   5.05 Doubly robust (DRDID)     -11.1   8.68
6 dr     Population-weighted -3.76   3.29 Doubly robust (DRDID)     -10.2   2.69
2xT event study (ATT(e)):
# A tibble: 22 × 6
       e   est    se weighting      lo95  hi95
   <dbl> <dbl> <dbl> <fct>         <dbl> <dbl>
 1    -5  8.48  4.35 Unweighted  -0.0363 17.0 
 2    -4  1.69  4.18 Unweighted  -6.51    9.88
 3    -3  3.84  4.30 Unweighted  -4.59   12.3 
 4    -2  7.33  5.32 Unweighted  -3.10   17.8 
 5    -1  0    NA    Unweighted  NA      NA   
 6     0 -1.23  5.00 Unweighted -11.0     8.58
 7     1  5.36  4.90 Unweighted  -4.24   15.0 
 8     2 12.2   4.76 Unweighted   2.90   21.6 
 9     3 13.5   5.19 Unweighted   3.38   23.7 
10     4  9.69  5.65 Unweighted  -1.38   20.8 
# ℹ 12 more rows
Group-specific ATT(g) (averaged over post periods):
# A tibble: 8 × 6
  group     est    se weighting             lo95   hi95
  <dbl>   <dbl> <dbl> <fct>                <dbl>  <dbl>
1  2014   9.43   3.84 Unweighted            1.90 17.0  
2  2015   4.94   5.90 Unweighted           -6.61 16.5  
3  2016 -17.3   11.0  Unweighted          -38.9   4.24 
4  2019   3.48   8.85 Unweighted          -13.9  20.8  
5  2014  -0.684  3.78 Population-weighted  -8.09  6.73 
6  2015  10.0    2.92 Population-weighted   4.31 15.8  
7  2016 -12.6    6.18 Population-weighted -24.7  -0.451
8  2019   3.31   4.46 Population-weighted  -5.44 12.1  
GxT dynamic event study:
# A tibble: 32 × 6
       e     est    se weighting     lo95  hi95
   <dbl>   <dbl> <dbl> <fct>        <dbl> <dbl>
 1   -10 -23.5   10.1  Unweighted -43.4   -3.65
 2    -9 -25.1    9.47 Unweighted -43.7   -6.55
 3    -8 -12.8   10.6  Unweighted -33.5    7.92
 4    -7  -0.341  8.25 Unweighted -16.5   15.8 
 5    -6  -1.27   7.96 Unweighted -16.9   14.3 
 6    -5   6.13   3.56 Unweighted  -0.836 13.1 
 7    -4   2.01   3.27 Unweighted  -4.39   8.41
 8    -3   4.04   3.34 Unweighted  -2.51  10.6 
 9    -2   5.62   3.84 Unweighted  -1.91  13.1 
10    -1   0     NA    Unweighted  NA     NA   
# ℹ 22 more rows
…
