…
**Raw output (first 10 of 22 rows; the log truncated to unweighted leads + lags 0–4):**

```text
2xT event study (ATT(e)):
# A tibble: 22 × 6
       e   est    se weighting      lo95  hi95
 1    -5  8.48  4.35 Unweighted  -0.0363 17.0
 2    -4  1.69  4.18 Unweighted  -6.51    9.88
 3    -3  3.84  4.30 Unweighted  -4.59   12.3
 4    -2  7.33  5.32 Unweighted  -3.10   17.8
 5    -1  0    NA    Unweighted  NA      NA
 6     0 -1.23  5.00 Unweighted -11.0     8.58
 7     1  5.36  4.90 Unweighted  -4.24   15.0
 8     2 12.2   4.76 Unweighted   2.90   21.6
 9     3 13.5   5.19 Unweighted   3.38   23.7
10     4  9.69  5.65 Unweighted  -1.38   20.8
```

*The full 22-row panel — including all 11 population-weighted rows hidden by the `# ℹ 12 more rows` truncation above — appears in the markdown table below and in `table_event_2xT.csv`.*
…
